{
  "mappings": {
    "properties": {
      "date": {
        "type": "date"
      },
      "fileName": {
        "type": "text"
      },
      "deploymentKey": {
        "type": "keyword"
      }
    }
  }
}